<?xml version="1.0" encoding="UTF-8" standalone="no"?>
<svg
   xmlns:dc="http://purl.org/dc/elements/1.1/"
   xmlns:cc="http://creativecommons.org/ns#"
   xmlns:rdf="http://www.w3.org/1999/02/22-rdf-syntax-ns#"
   xmlns:svg="http://www.w3.org/2000/svg"
   xmlns="http://www.w3.org/2000/svg"
   xmlns:xlink="http://www.w3.org/1999/xlink"
   width="425.36078pt"
   height="190.04189pt"
   viewBox="0 0 425.36078 190.04188"
   version="1.2"
   id="svg312">
  <metadata
     id="metadata316">
    <rdf:RDF>
      <cc:Work
         rdf:about="">
        <dc:format>image/svg+xml</dc:format>
        <dc:type
           rdf:resource="http://purl.org/dc/dcmitype/StillImage" />
        <dc:title></dc:title>
      </cc:Work>
    </rdf:RDF>
  </metadata>
  <defs
     id="defs73">
    <g
       id="g71">
      <symbol
         overflow="visible"
         id="glyph0-0">
        <path
           style="stroke:none"
           d="M 5.15625,-9.953125 H 1.171875 V 3.3125 H 5.15625 Z M 4.640625,-9.46875 V 2.828125 H 1.6875 V -9.46875 Z m -1.5625,5.1875 c -0.375,0 -0.890625,0.125 -0.890625,0.375 0,0.125 0.09375,0.21875 0.234375,0.21875 0.03125,0 0.078125,-0.015625 0.125,-0.03125 0.15625,-0.078125 0.28125,-0.109375 0.484375,-0.109375 0.484375,0 0.578125,0.296875 0.578125,0.65625 0,0.5 -0.171875,0.703125 -0.859375,0.734375 v 0.796875 C 2.75,-1.5 2.859375,-1.40625 2.984375,-1.40625 3.09375,-1.40625 3.21875,-1.5 3.21875,-1.640625 V -2.0625 C 3.859375,-2.15625 4.125,-2.515625 4.125,-3.1875 4.125,-3.75 3.890625,-4.28125 3.078125,-4.28125 Z m -0.09375,3.140625 c -0.1875,0 -0.328125,0.140625 -0.328125,0.328125 0,0.203125 0.140625,0.359375 0.328125,0.359375 0.1875,0 0.328125,-0.15625 0.328125,-0.359375 0,-0.1875 -0.140625,-0.328125 -0.328125,-0.328125 z m 0,0"
           id="path2" />
      </symbol>
      <symbol
         overflow="visible"
         id="glyph0-1">
        <path
           style="stroke:none"
           d="m 2.546875,-6.640625 c -1.1875,0 -2.015625,0.703125 -2.015625,1.6875 0,0.984375 0.640625,1.46875 1.921875,1.859375 1.109375,0.34375 1.4375,0.640625 1.4375,1.3125 0,0.796875 -0.640625,1.21875 -1.4375,1.21875 -0.734375,0 -1.234375,-0.265625 -1.734375,-0.671875 L 0.265625,-0.71875 c 0.546875,0.515625 1.265625,0.828125 2.1875,0.828125 1.4375,0 2.28125,-0.78125 2.28125,-1.921875 0,-1.21875 -0.84375,-1.640625 -1.90625,-1.96875 C 1.65625,-4.140625 1.375,-4.40625 1.375,-4.984375 c 0,-0.640625 0.515625,-0.96875 1.21875,-0.96875 0.546875,0 1,0.171875 1.5,0.5625 l 0.4375,-0.5 C 4,-6.375 3.4375,-6.640625 2.546875,-6.640625 Z m 0,0"
           id="path5" />
      </symbol>
      <symbol
         overflow="visible"
         id="glyph0-2">
        <path
           style="stroke:none"
           d="M 4.5,-4.984375 H 3.6875 l -1.359375,4.40625 -1.375,-4.40625 H 0.109375 L 1.796875,0 H 2.0625 C 1.78125,0.796875 1.5,1.1875 0.484375,1.375 L 0.578125,2 c 1.34375,-0.171875 1.890625,-0.90625 2.25,-1.96875 z m 0,0"
           id="path8" />
      </symbol>
      <symbol
         overflow="visible"
         id="glyph0-3">
        <path
           style="stroke:none"
           d="m 2.234375,-5.109375 c -1,0 -1.765625,0.578125 -1.765625,1.359375 0,0.703125 0.4375,1.15625 1.515625,1.4375 0.96875,0.265625 1.234375,0.453125 1.234375,0.96875 0,0.515625 -0.4375,0.8125 -1.109375,0.8125 -0.5625,0 -1.015625,-0.1875 -1.421875,-0.5 l -0.421875,0.484375 c 0.421875,0.390625 1.03125,0.65625 1.859375,0.65625 1,0 1.921875,-0.484375 1.921875,-1.5 C 4.046875,-2.25 3.46875,-2.65625 2.40625,-2.9375 1.578125,-3.15625 1.3125,-3.34375 1.3125,-3.765625 c 0,-0.421875 0.359375,-0.703125 0.953125,-0.703125 0.46875,0 0.859375,0.140625 1.296875,0.4375 l 0.359375,-0.5 C 3.4375,-4.890625 2.9375,-5.109375 2.234375,-5.109375 Z m 0,0"
           id="path11" />
      </symbol>
      <symbol
         overflow="visible"
         id="glyph0-4">
        <path
           style="stroke:none"
           d="m 3.078125,-0.765625 c -0.25,0.15625 -0.453125,0.21875 -0.6875,0.21875 -0.453125,0 -0.625,-0.25 -0.625,-0.765625 V -4.375 h 1.125 L 2.96875,-4.984375 H 1.765625 V -6.21875 L 0.96875,-6.140625 v 1.15625 H 0.109375 V -4.375 H 0.96875 v 3.09375 c 0,0.90625 0.484375,1.390625 1.3125,1.390625 C 2.703125,0.109375 3.0625,0 3.390625,-0.21875 Z m 0,0"
           id="path14" />
      </symbol>
      <symbol
         overflow="visible"
         id="glyph0-5">
        <path
           style="stroke:none"
           d="m 4.640625,-2.65625 c 0,-1.5 -0.6875,-2.453125 -2.03125,-2.453125 -1.265625,0 -2.046875,1.09375 -2.046875,2.65625 0,1.59375 0.796875,2.5625 2.171875,2.5625 0.6875,0 1.234375,-0.234375 1.71875,-0.625 l -0.34375,-0.46875 c -0.4375,0.296875 -0.8125,0.4375 -1.3125,0.4375 -0.75,0 -1.3125,-0.46875 -1.390625,-1.671875 H 4.625 c 0,-0.109375 0.015625,-0.265625 0.015625,-0.4375 z M 3.84375,-2.8125 h -2.4375 c 0.0625,-1.15625 0.53125,-1.65625 1.21875,-1.65625 0.828125,0 1.21875,0.578125 1.21875,1.578125 z m 0,0"
           id="path17" />
      </symbol>
      <symbol
         overflow="visible"
         id="glyph0-6">
        <path
           style="stroke:none"
           d="m 5.875,-5.109375 c -0.671875,0 -1.140625,0.375 -1.5,0.921875 -0.1875,-0.578125 -0.640625,-0.921875 -1.25,-0.921875 -0.65625,0 -1.125,0.359375 -1.46875,0.875 l -0.078125,-0.75 H 0.90625 V 0 h 0.796875 v -3.5625 c 0.34375,-0.546875 0.671875,-0.921875 1.21875,-0.921875 0.421875,0 0.734375,0.25 0.734375,1.015625 V 0 H 4.453125 V -3.5625 C 4.8125,-4.109375 5.125,-4.484375 5.6875,-4.484375 c 0.40625,0 0.734375,0.25 0.734375,1.015625 V 0 H 7.21875 v -3.578125 c 0,-0.9375 -0.53125,-1.53125 -1.34375,-1.53125 z m 0,0"
           id="path20" />
      </symbol>
      <symbol
         overflow="visible"
         id="glyph0-7">
        <path
           style="stroke:none"
           d="m 4.765625,-6.53125 h -4.625 v 0.703125 h 1.875 V 0 h 0.8125 v -5.828125 h 1.84375 z m 0,0"
           id="path23" />
      </symbol>
      <symbol
         overflow="visible"
         id="glyph0-8">
        <path
           style="stroke:none"
           d="m 1.296875,-7.34375 c -0.34375,0 -0.5625,0.234375 -0.5625,0.546875 0,0.3125 0.21875,0.5625 0.5625,0.5625 0.328125,0 0.5625,-0.25 0.5625,-0.5625 0,-0.3125 -0.234375,-0.546875 -0.5625,-0.546875 z m 0.40625,2.359375 H 0.90625 V 0 h 0.796875 z m 0,0"
           id="path26" />
      </symbol>
      <symbol
         overflow="visible"
         id="glyph0-9">
        <path
           style="stroke:none"
           d="m 2.71875,-5.109375 c -1.328125,0 -2.15625,1.0625 -2.15625,2.65625 0,1.609375 0.828125,2.5625 2.15625,2.5625 0.578125,0 1.078125,-0.1875 1.5,-0.546875 l -0.375,-0.515625 C 3.484375,-0.703125 3.171875,-0.5625 2.75,-0.5625 c -0.8125,0 -1.34375,-0.578125 -1.34375,-1.90625 0,-1.328125 0.53125,-1.96875 1.34375,-1.96875 0.421875,0 0.75,0.125 1.078125,0.375 L 4.21875,-4.578125 c -0.453125,-0.375 -0.921875,-0.53125 -1.5,-0.53125 z m 0,0"
           id="path29" />
      </symbol>
      <symbol
         overflow="visible"
         id="glyph0-10">
        <path
           style="stroke:none"
           d="M 1.703125,-7.09375 0.90625,-7 v 7 h 0.796875 z m 2.84375,2.109375 H 3.65625 L 1.75,-2.71875 3.796875,0 h 0.96875 L 2.65625,-2.78125 Z m 0,0"
           id="path32" />
      </symbol>
      <symbol
         overflow="visible"
         id="glyph0-11">
        <path
           style="stroke:none"
           d="m 3.21875,-5.109375 c -0.65625,0 -1.15625,0.34375 -1.515625,0.84375 v -2.8125 L 0.90625,-6.984375 V 0 h 0.796875 v -3.5625 c 0.34375,-0.546875 0.75,-0.921875 1.328125,-0.921875 0.5,0 0.8125,0.25 0.8125,1.015625 V 0 h 0.796875 v -3.578125 c 0,-0.9375 -0.515625,-1.53125 -1.421875,-1.53125 z m 0,0"
           id="path35" />
      </symbol>
      <symbol
         overflow="visible"
         id="glyph0-12">
        <path
           style="stroke:none"
           d="m 3.875,-7.09375 v 2.609375 c -0.328125,-0.328125 -0.75,-0.625 -1.359375,-0.625 -1.21875,0 -1.953125,1.109375 -1.953125,2.640625 0,1.5625 0.671875,2.578125 1.875,2.578125 0.640625,0 1.140625,-0.3125 1.453125,-0.8125 L 3.96875,0 h 0.703125 v -7 z m -1.28125,6.578125 c -0.75,0 -1.1875,-0.640625 -1.1875,-1.96875 0,-1.328125 0.5,-1.984375 1.28125,-1.984375 0.515625,0 0.875,0.265625 1.1875,0.671875 V -1.3125 c -0.34375,0.5 -0.703125,0.796875 -1.28125,0.796875 z m 0,0"
           id="path38" />
      </symbol>
      <symbol
         overflow="visible"
         id="glyph0-13">
        <path
           style="stroke:none"
           d="M 4.546875,-4.984375 H 3.75 v 3.578125 c -0.3125,0.515625 -0.71875,0.890625 -1.296875,0.890625 -0.5625,0 -0.8125,-0.265625 -0.8125,-0.984375 V -4.984375 H 0.84375 v 3.578125 c 0,0.96875 0.515625,1.515625 1.390625,1.515625 0.734375,0 1.203125,-0.3125 1.578125,-0.921875 L 3.875,0 h 0.671875 z m 0,0"
           id="path41" />
      </symbol>
      <symbol
         overflow="visible"
         id="glyph0-14">
        <path
           style="stroke:none"
           d="m 1.84375,0.109375 c 0.25,0 0.484375,-0.0625 0.671875,-0.15625 l -0.21875,-0.5625 c -0.09375,0.046875 -0.203125,0.0625 -0.328125,0.0625 -0.234375,0 -0.328125,-0.140625 -0.328125,-0.421875 v -6.125 L 0.84375,-7 v 6.046875 c 0,0.703125 0.40625,1.0625 1,1.0625 z m 0,0"
           id="path44" />
      </symbol>
      <symbol
         overflow="visible"
         id="glyph0-15">
        <path
           style="stroke:none"
           d="m 3.015625,-5.109375 c -0.625,0 -1.09375,0.390625 -1.359375,1.15625 L 1.578125,-4.984375 H 0.90625 V 0 h 0.796875 v -2.890625 c 0.21875,-0.984375 0.578125,-1.4375 1.21875,-1.4375 0.171875,0 0.296875,0.015625 0.4375,0.0625 l 0.15625,-0.78125 c -0.15625,-0.03125 -0.328125,-0.0625 -0.5,-0.0625 z m 0,0"
           id="path47" />
      </symbol>
      <symbol
         overflow="visible"
         id="glyph0-16">
        <path
           style="stroke:none"
           d="M 2.640625,-6.53125 H 0.984375 V 0 h 0.8125 v -2.421875 h 0.84375 c 1.4375,0 2.515625,-0.609375 2.515625,-2.109375 0,-1.359375 -0.953125,-2 -2.515625,-2 z M 2.625,-3.078125 H 1.796875 V -5.875 h 0.84375 c 1,0 1.640625,0.359375 1.640625,1.359375 0,1.125 -0.671875,1.4375 -1.65625,1.4375 z m 0,0"
           id="path50" />
      </symbol>
      <symbol
         overflow="visible"
         id="glyph0-17">
        <path
           style="stroke:none"
           d="m 2.765625,-5.109375 c -1.40625,0 -2.203125,1.0625 -2.203125,2.625 0,1.578125 0.796875,2.59375 2.1875,2.59375 1.390625,0 2.203125,-1.046875 2.203125,-2.609375 0,-1.59375 -0.796875,-2.609375 -2.1875,-2.609375 z m 0,0.65625 c 0.859375,0 1.328125,0.625 1.328125,1.953125 0,1.328125 -0.484375,1.96875 -1.34375,1.96875 -0.859375,0 -1.34375,-0.640625 -1.34375,-1.953125 0,-1.34375 0.5,-1.96875 1.359375,-1.96875 z m 0,0"
           id="path53" />
      </symbol>
      <symbol
         overflow="visible"
         id="glyph0-18">
        <path
           style="stroke:none"
           d="M 3,-5.34375 H 2.296875 l -1.953125,1.203125 0.34375,0.5625 1.515625,-0.90625 V 0 H 3 Z m 0,0"
           id="path56" />
      </symbol>
      <symbol
         overflow="visible"
         id="glyph0-19">
        <path
           style="stroke:none"
           d="m 2.109375,-5.4375 c -0.8125,0 -1.421875,0.34375 -1.953125,1 l 0.515625,0.421875 c 0.453125,-0.5625 0.875,-0.765625 1.421875,-0.765625 0.65625,0 1.109375,0.40625 1.109375,1.03125 0,0.78125 -0.34375,1.265625 -2.90625,3.109375 V 0 h 3.75 l 0.09375,-0.671875 h -2.8125 C 3.75,-2.234375 4.03125,-2.890625 4.03125,-3.78125 c 0,-0.9375 -0.734375,-1.65625 -1.921875,-1.65625 z m 0,0"
           id="path59" />
      </symbol>
      <symbol
         overflow="visible"
         id="glyph0-20">
        <path
           style="stroke:none"
           d="m 2.125,-5.4375 c -0.71875,0 -1.296875,0.25 -1.828125,0.75 l 0.421875,0.46875 c 0.421875,-0.40625 0.828125,-0.578125 1.328125,-0.578125 0.703125,0 1.125,0.390625 1.125,1 0,0.71875 -0.53125,1.09375 -1.21875,1.09375 H 1.625 l -0.09375,0.625 H 2 c 0.859375,0 1.34375,0.359375 1.34375,1.21875 0,0.796875 -0.5,1.3125 -1.359375,1.3125 -0.53125,0 -0.96875,-0.1875 -1.390625,-0.640625 L 0.125,0.25 c 0.46875,0.578125 1.125,0.84375 1.890625,0.84375 1.328125,0 2.15625,-0.8125 2.15625,-1.921875 0,-1 -0.59375,-1.515625 -1.4375,-1.59375 0.71875,-0.15625 1.25,-0.671875 1.25,-1.4375 C 3.984375,-4.6875 3.3125,-5.4375 2.125,-5.4375 Z m 0,0"
           id="path62" />
      </symbol>
      <symbol
         overflow="visible"
         id="glyph0-21">
        <path
           style="stroke:none"
           d="m 3.21875,-5.109375 c -0.671875,0 -1.203125,0.359375 -1.5625,0.875 l -0.078125,-0.75 H 0.90625 V 0 h 0.796875 v -3.5625 c 0.34375,-0.546875 0.75,-0.921875 1.328125,-0.921875 0.515625,0 0.8125,0.25 0.8125,1.015625 V 0 h 0.796875 v -3.578125 c 0,-0.953125 -0.5,-1.53125 -1.421875,-1.53125 z m 0,0"
           id="path65" />
      </symbol>
      <symbol
         overflow="visible"
         id="glyph0-22">
        <path
           style="stroke:none"
           d="m 3.140625,-5.109375 c -0.59375,0 -1.125,0.296875 -1.484375,0.8125 l -0.078125,-0.6875 H 0.90625 V 2 L 1.703125,1.90625 v -2.390625 c 0.3125,0.40625 0.765625,0.59375 1.328125,0.59375 1.28125,0 1.953125,-1.09375 1.953125,-2.609375 0,-1.59375 -0.546875,-2.609375 -1.84375,-2.609375 z m -0.296875,4.5625 c -0.484375,0 -0.875,-0.234375 -1.140625,-0.640625 v -2.46875 c 0.28125,-0.4375 0.6875,-0.8125 1.25,-0.8125 0.78125,0 1.15625,0.640625 1.15625,1.96875 0,1.328125 -0.4375,1.953125 -1.265625,1.953125 z m 0,0"
           id="path68" />
      </symbol>
    </g>
  </defs>
  <g
     id="surface4699"
     transform="translate(-76.475156,-70.807187)">
    <path
       style="fill:#ebeef0;fill-opacity:1;fill-rule:nonzero;stroke:none"
       d="M 76.632812,259.61328 H 501.83594 V 75.359375 H 76.632812 Z m 0,0"
       id="path75" />
    <path
       style="fill:#667a8f;fill-opacity:1;fill-rule:nonzero;stroke:#667a8f;stroke-width:0.12;stroke-linecap:butt;stroke-linejoin:miter;stroke-miterlimit:10;stroke-opacity:1"
       d="m 1.5625e-4,1.418813 v 2.832031 c 0,0.785156 0.63281275,1.417969 1.41796875,1.417969 H 423.78531 c 0.78125,0 1.41797,-0.632813 1.41797,-1.417969 V 1.418813 c 0,-0.785157 -0.63672,-1.41796925 -1.41797,-1.41796925 H 1.418125 C 0.632969,8.4375e-4 1.5625e-4,0.633656 1.5625e-4,1.418813 Z m 0,0"
       transform="matrix(1,0,0,-1,76.535,76.536)"
       id="path77" />
    <g
       style="fill:#33516b;fill-opacity:1"
       id="g81">
      <use
         xlink:href="#glyph0-1"
         x="94.132004"
         y="130.274"
         id="use79"
         width="100%"
         height="100%" />
    </g>
    <g
       style="fill:#33516b;fill-opacity:1"
       id="g85">
      <use
         xlink:href="#glyph0-2"
         x="99.247597"
         y="130.274"
         id="use83"
         width="100%"
         height="100%" />
    </g>
    <g
       style="fill:#33516b;fill-opacity:1"
       id="g91">
      <use
         xlink:href="#glyph0-3"
         x="103.79374"
         y="130.274"
         id="use87"
         width="100%"
         height="100%" />
      <use
         xlink:href="#glyph0-4"
         x="108.20701"
         y="130.274"
         id="use89"
         width="100%"
         height="100%" />
    </g>
    <g
       style="fill:#33516b;fill-opacity:1"
       id="g97">
      <use
         xlink:href="#glyph0-5"
         x="111.46238"
         y="130.274"
         id="use93"
         width="100%"
         height="100%" />
      <use
         xlink:href="#glyph0-6"
         x="116.60645"
         y="130.274"
         id="use95"
         width="100%"
         height="100%" />
    </g>
    <g
       style="fill:#33516b;fill-opacity:1"
       id="g107">
      <use
         xlink:href="#glyph0-7"
         x="127.21728"
         y="130.274"
         id="use99"
         width="100%"
         height="100%" />
      <use
         xlink:href="#glyph0-8"
         x="132.07661"
         y="130.274"
         id="use101"
         width="100%"
         height="100%" />
      <use
         xlink:href="#glyph0-9"
         x="134.67712"
         y="130.274"
         id="use103"
         width="100%"
         height="100%" />
      <use
         xlink:href="#glyph0-10"
         x="139.19479"
         y="130.274"
         id="use105"
         width="100%"
         height="100%" />
    </g>
    <g
       style="fill:#33516b;fill-opacity:1"
       id="g123">
      <use
         xlink:href="#glyph0-1"
         x="94.132004"
         y="170.737"
         id="use109"
         width="100%"
         height="100%" />
      <use
         xlink:href="#glyph0-9"
         x="99.295052"
         y="170.737"
         id="use111"
         width="100%"
         height="100%" />
      <use
         xlink:href="#glyph0-11"
         x="103.81272"
         y="170.737"
         id="use113"
         width="100%"
         height="100%" />
      <use
         xlink:href="#glyph0-5"
         x="109.30795"
         y="170.737"
         id="use115"
         width="100%"
         height="100%" />
      <use
         xlink:href="#glyph0-12"
         x="114.45202"
         y="170.737"
         id="use117"
         width="100%"
         height="100%" />
      <use
         xlink:href="#glyph0-13"
         x="120.02318"
         y="170.737"
         id="use119"
         width="100%"
         height="100%" />
      <use
         xlink:href="#glyph0-14"
         x="125.48045"
         y="170.737"
         id="use121"
         width="100%"
         height="100%" />
    </g>
    <g
       style="fill:#33516b;fill-opacity:1"
       id="g129">
      <use
         xlink:href="#glyph0-5"
         x="128.21382"
         y="170.737"
         id="use125"
         width="100%"
         height="100%" />
      <use
         xlink:href="#glyph0-15"
         x="133.35789"
         y="170.737"
         id="use127"
         width="100%"
         height="100%" />
    </g>
    <g
       style="fill:#33516b;fill-opacity:1"
       id="g133">
      <use
         xlink:href="#glyph0-16"
         x="94.132004"
         y="209.644"
         id="use131"
         width="100%"
         height="100%" />
    </g>
    <g
       style="fill:#33516b;fill-opacity:1"
       id="g147">
      <use
         xlink:href="#glyph0-15"
         x="99.427925"
         y="209.644"
         id="use135"
         width="100%"
         height="100%" />
      <use
         xlink:href="#glyph0-8"
         x="103.03446"
         y="209.644"
         id="use137"
         width="100%"
         height="100%" />
      <use
         xlink:href="#glyph0-17"
         x="105.63497"
         y="209.644"
         id="use139"
         width="100%"
         height="100%" />
      <use
         xlink:href="#glyph0-15"
         x="111.14919"
         y="209.644"
         id="use141"
         width="100%"
         height="100%" />
      <use
         xlink:href="#glyph0-8"
         x="114.75573"
         y="209.644"
         id="use143"
         width="100%"
         height="100%" />
      <use
         xlink:href="#glyph0-4"
         x="117.35623"
         y="209.644"
         id="use145"
         width="100%"
         height="100%" />
    </g>
    <g
       style="fill:#33516b;fill-opacity:1"
       id="g151">
      <use
         xlink:href="#glyph0-2"
         x="120.69703"
         y="209.644"
         id="use149"
         width="100%"
         height="100%" />
    </g>
    <g
       style="fill:#33516b;fill-opacity:1"
       id="g155">
      <use
         xlink:href="#glyph0-18"
         x="127.85316"
         y="209.644"
         id="use153"
         width="100%"
         height="100%" />
    </g>
    <path
       style="fill:none;stroke:#33516b;stroke-width:0.59776;stroke-linecap:butt;stroke-linejoin:miter;stroke-miterlimit:10;stroke-opacity:1"
       d="m 84.781406,-60.944469 h 8.503907 v 19.839844 h -8.503907 z m 0,0"
       transform="matrix(1,0,0,-1,76.535,76.536)"
       id="path157" />
    <path
       style="fill:none;stroke:#33516b;stroke-width:0.59776;stroke-linecap:butt;stroke-linejoin:miter;stroke-miterlimit:10;stroke-opacity:1"
       d="m 93.285313,-100.63197 h 8.503907 v 19.843751 h -8.503907 z m 0,0"
       transform="matrix(1,0,0,-1,76.535,76.536)"
       id="path159" />
    <path
       style="fill:none;stroke:#33516b;stroke-width:0.59776;stroke-linecap:butt;stroke-linejoin:miter;stroke-miterlimit:10;stroke-opacity:1"
       d="m 101.78922,-140.31556 h 107.71875 v 19.83984 H 101.78922 Z m 0,0"
       transform="matrix(1,0,0,-1,76.535,76.536)"
       id="path161" />
    <g
       style="fill:#33516b;fill-opacity:1"
       id="g165">
      <use
         xlink:href="#glyph0-7"
         x="227.952"
         y="210.244"
         id="use163"
         width="100%"
         height="100%" />
    </g>
    <g
       style="fill:#33516b;fill-opacity:1"
       id="g169">
      <use
         xlink:href="#glyph0-18"
         x="232.4317"
         y="210.244"
         id="use167"
         width="100%"
         height="100%" />
    </g>
    <path
       style="fill:none;stroke:#33516b;stroke-width:0.59776;stroke-linecap:butt;stroke-linejoin:miter;stroke-miterlimit:10;stroke-opacity:1"
       d="m 209.50797,-60.944469 h 8.5039 v 19.839844 h -8.5039 z m 0,0"
       transform="matrix(1,0,0,-1,76.535,76.536)"
       id="path171" />
    <path
       style="fill:none;stroke:#33516b;stroke-width:0.59776;stroke-linecap:butt;stroke-linejoin:miter;stroke-miterlimit:10;stroke-opacity:1"
       d="m 218.01187,-100.63197 h 8.50391 v 19.843751 h -8.50391 z m 0,0"
       transform="matrix(1,0,0,-1,76.535,76.536)"
       id="path173" />
    <path
       style="fill:none;stroke:#33516b;stroke-width:0.59776;stroke-linecap:butt;stroke-linejoin:miter;stroke-miterlimit:10;stroke-opacity:1"
       d="m 226.51578,-140.31556 h 42.51953 v 19.83984 h -42.51953 z m 0,0"
       transform="matrix(1,0,0,-1,76.535,76.536)"
       id="path175" />
    <g
       style="fill:#33516b;fill-opacity:1"
       id="g179">
      <use
         xlink:href="#glyph0-7"
         x="319.67999"
         y="210.244"
         id="use177"
         width="100%"
         height="100%" />
    </g>
    <g
       style="fill:#33516b;fill-opacity:1"
       id="g183">
      <use
         xlink:href="#glyph0-19"
         x="324.25461"
         y="210.244"
         id="use181"
         width="100%"
         height="100%" />
    </g>
    <path
       style="fill:none;stroke:#33516b;stroke-width:0.59776;stroke-linecap:butt;stroke-linejoin:miter;stroke-miterlimit:10;stroke-opacity:1"
       d="m 269.03531,-100.63197 h 8.50391 v 19.843751 h -8.50391 z m 0,0"
       transform="matrix(1,0,0,-1,76.535,76.536)"
       id="path185" />
    <path
       style="fill:none;stroke:#33516b;stroke-width:0.59776;stroke-linecap:butt;stroke-linejoin:miter;stroke-miterlimit:10;stroke-opacity:1"
       d="m 277.53922,-140.31556 h 56.6914 v 19.83984 h -56.6914 z m 0,0"
       transform="matrix(1,0,0,-1,76.535,76.536)"
       id="path187" />
    <g
       style="fill:#33516b;fill-opacity:1"
       id="g191">
      <use
         xlink:href="#glyph0-7"
         x="377.866"
         y="209.69099"
         id="use189"
         width="100%"
         height="100%" />
    </g>
    <g
       style="fill:#33516b;fill-opacity:1"
       id="g195">
      <use
         xlink:href="#glyph0-20"
         x="382.3457"
         y="209.69099"
         id="use193"
         width="100%"
         height="100%" />
    </g>
    <path
       style="fill:none;stroke:#33516b;stroke-width:0.59776;stroke-linecap:butt;stroke-linejoin:miter;stroke-miterlimit:10;stroke-opacity:1"
       d="m 334.23062,-60.944469 h 8.50391 v 19.839844 h -8.50391 z m 0,0"
       transform="matrix(1,0,0,-1,76.535,76.536)"
       id="path197" />
    <path
       style="fill:none;stroke:#33516b;stroke-width:0.59776;stroke-linecap:butt;stroke-linejoin:miter;stroke-miterlimit:10;stroke-opacity:1"
       d="m 342.73453,-100.63197 h 8.50391 v 19.843751 h -8.50391 z m 0,0"
       transform="matrix(1,0,0,-1,76.535,76.536)"
       id="path199" />
    <path
       style="fill:none;stroke:#33516b;stroke-width:0.59776;stroke-linecap:butt;stroke-linejoin:miter;stroke-miterlimit:10;stroke-opacity:1"
       d="m 351.23844,-140.31556 h 56.69531 v 19.83984 h -56.69531 z m 0,0"
       transform="matrix(1,0,0,-1,76.535,76.536)"
       id="path201" />
    <g
       style="fill:#33516b;fill-opacity:1"
       id="g205">
      <use
         xlink:href="#glyph0-7"
         x="451.88901"
         y="210.244"
         id="use203"
         width="100%"
         height="100%" />
    </g>
    <g
       style="fill:#33516b;fill-opacity:1"
       id="g209">
      <use
         xlink:href="#glyph0-18"
         x="456.36871"
         y="210.244"
         id="use207"
         width="100%"
         height="100%" />
    </g>
    <path
       style="fill:none;stroke:#33516b;stroke-width:0.59776;stroke-linecap:butt;stroke-linejoin:miter;stroke-miterlimit:10;stroke-opacity:1"
       d="M 93.285313,-60.944469 V -74.202281"
       transform="matrix(1,0,0,-1,76.535,76.536)"
       id="path211" />
    <path
       style="fill:#33516b;fill-opacity:1;fill-rule:nonzero;stroke:#33516b;stroke-width:0.59776;stroke-linecap:butt;stroke-linejoin:miter;stroke-miterlimit:10;stroke-opacity:1"
       d="M 5.579829,0.0011325 0.298579,1.497226 v -2.992187 z m 0,0"
       transform="matrix(0,1,1,0,169.81918,150.58814)"
       id="path213" />
    <path
       style="fill:none;stroke:#33516b;stroke-width:0.59776;stroke-linecap:butt;stroke-linejoin:miter;stroke-miterlimit:10;stroke-opacity:1"
       d="m 101.78922,-100.63197 v -13.25391"
       transform="matrix(1,0,0,-1,76.535,76.536)"
       id="path215" />
    <path
       style="fill:#33516b;fill-opacity:1;fill-rule:nonzero;stroke:#33516b;stroke-width:0.59776;stroke-linecap:butt;stroke-linejoin:miter;stroke-miterlimit:10;stroke-opacity:1"
       d="M 5.581809,0.00101875 0.300559,1.497113 v -2.992188 z m 0,0"
       transform="matrix(0,1,1,0,178.3232,190.27366)"
       id="path217" />
    <path
       style="fill:none;stroke:#33516b;stroke-width:0.59776;stroke-linecap:butt;stroke-linejoin:miter;stroke-miterlimit:10;stroke-opacity:1"
       d="m 209.50797,-120.47572 1.61719,30.914064 -3.11329,-2.378906 1.17579,24.414062"
       transform="matrix(1,0,0,-1,76.535,76.536)"
       id="path219" />
    <path
       style="fill:#33516b;fill-opacity:1;fill-rule:nonzero;stroke:#33516b;stroke-width:0.59776;stroke-linecap:butt;stroke-linejoin:miter;stroke-miterlimit:10;stroke-opacity:1"
       d="M 5.579797,0.00103507 0.298393,1.494516 0.300044,6.15116e-4 0.297981,-1.497376 Z m 0,0"
       transform="matrix(0.04817,-0.9988,-0.9988,-0.04817,285.71663,144.20987)"
       id="path221" />
    <g
       style="fill:#33516b;fill-opacity:1"
       id="g229">
      <use
         xlink:href="#glyph0-8"
         x="243.742"
         y="155.692"
         id="use223"
         width="100%"
         height="100%" />
      <use
         xlink:href="#glyph0-21"
         x="246.34251"
         y="155.692"
         id="use225"
         width="100%"
         height="100%" />
      <use
         xlink:href="#glyph0-4"
         x="251.83774"
         y="155.692"
         id="use227"
         width="100%"
         height="100%" />
    </g>
    <g
       style="fill:#33516b;fill-opacity:1"
       id="g243">
      <use
         xlink:href="#glyph0-5"
         x="255.09311"
         y="155.692"
         id="use231"
         width="100%"
         height="100%" />
      <use
         xlink:href="#glyph0-15"
         x="260.23718"
         y="155.692"
         id="use233"
         width="100%"
         height="100%" />
      <use
         xlink:href="#glyph0-15"
         x="263.84372"
         y="155.692"
         id="use235"
         width="100%"
         height="100%" />
      <use
         xlink:href="#glyph0-13"
         x="267.45026"
         y="155.692"
         id="use237"
         width="100%"
         height="100%" />
      <use
         xlink:href="#glyph0-22"
         x="272.90753"
         y="155.692"
         id="use239"
         width="100%"
         height="100%" />
      <use
         xlink:href="#glyph0-4"
         x="278.44073"
         y="155.692"
         id="use241"
         width="100%"
         height="100%" />
    </g>
    <path
       style="fill:none;stroke:#33516b;stroke-width:0.59776;stroke-linecap:butt;stroke-linejoin:miter;stroke-miterlimit:10;stroke-opacity:1"
       d="M 218.01187,-60.944469 V -74.202281"
       transform="matrix(1,0,0,-1,76.535,76.536)"
       id="path245" />
    <path
       style="fill:#33516b;fill-opacity:1;fill-rule:nonzero;stroke:#33516b;stroke-width:0.59776;stroke-linecap:butt;stroke-linejoin:miter;stroke-miterlimit:10;stroke-opacity:1"
       d="m 5.579829,0.001725 -5.28125,1.496094 v -2.992188 z m 0,0"
       transform="matrix(0,1,1,0,294.54515,150.58814)"
       id="path247" />
    <path
       style="fill:none;stroke:#33516b;stroke-width:0.59776;stroke-linecap:butt;stroke-linejoin:miter;stroke-miterlimit:10;stroke-opacity:1"
       d="m 226.51578,-100.63197 v -13.25391"
       transform="matrix(1,0,0,-1,76.535,76.536)"
       id="path249" />
    <path
       style="fill:#33516b;fill-opacity:1;fill-rule:nonzero;stroke:#33516b;stroke-width:0.59776;stroke-linecap:butt;stroke-linejoin:miter;stroke-miterlimit:10;stroke-opacity:1"
       d="M 5.581809,0.00162125 0.300559,1.497715 v -2.992187 z m 0,0"
       transform="matrix(0,1,1,0,303.04916,190.27366)"
       id="path251" />
    <path
       style="fill:none;stroke:#33516b;stroke-width:0.59776;stroke-linecap:butt;stroke-linejoin:miter;stroke-miterlimit:10;stroke-opacity:1"
       d="m 269.03531,-120.47572 v 13.25781"
       transform="matrix(1,0,0,-1,76.535,76.536)"
       id="path253" />
    <path
       style="fill:#33516b;fill-opacity:1;fill-rule:nonzero;stroke:#33516b;stroke-width:0.59776;stroke-linecap:butt;stroke-linejoin:miter;stroke-miterlimit:10;stroke-opacity:1"
       d="M 5.583208,-9.325e-4 0.298051,1.495161 v -2.992187 z m 0,0"
       transform="matrix(0,-1,-1,0,345.56938,183.90352)"
       id="path255" />
    <g
       style="fill:#33516b;fill-opacity:1"
       id="g265">
      <use
         xlink:href="#glyph0-2"
         x="321.44299"
         y="189.80099"
         id="use257"
         width="100%"
         height="100%" />
      <use
         xlink:href="#glyph0-8"
         x="326.05557"
         y="189.80099"
         id="use259"
         width="100%"
         height="100%" />
      <use
         xlink:href="#glyph0-5"
         x="328.6561"
         y="189.80099"
         id="use261"
         width="100%"
         height="100%" />
      <use
         xlink:href="#glyph0-14"
         x="333.80014"
         y="189.80099"
         id="use263"
         width="100%"
         height="100%" />
    </g>
    <g
       style="fill:#33516b;fill-opacity:1"
       id="g269">
      <use
         xlink:href="#glyph0-12"
         x="336.53354"
         y="189.80099"
         id="use267"
         width="100%"
         height="100%" />
    </g>
    <path
       style="fill:none;stroke:#33516b;stroke-width:0.59776;stroke-linecap:butt;stroke-linejoin:miter;stroke-miterlimit:10;stroke-opacity:1"
       d="m 277.53922,-100.63197 v -13.25391"
       transform="matrix(1,0,0,-1,76.535,76.536)"
       id="path271" />
    <path
       style="fill:#33516b;fill-opacity:1;fill-rule:nonzero;stroke:#33516b;stroke-width:0.59776;stroke-linecap:butt;stroke-linejoin:miter;stroke-miterlimit:10;stroke-opacity:1"
       d="M 5.581809,8.2875e-4 0.300559,1.496923 v -2.992188 z m 0,0"
       transform="matrix(0,1,1,0,354.07339,190.27366)"
       id="path273" />
    <path
       style="fill:none;stroke:#33516b;stroke-width:0.59776;stroke-linecap:butt;stroke-linejoin:miter;stroke-miterlimit:10;stroke-opacity:1"
       d="m 334.23062,-120.47572 1.6211,30.914064 -3.11328,-2.378906 1.17578,24.414062"
       transform="matrix(1,0,0,-1,76.535,76.536)"
       id="path275" />
    <path
       style="fill:#33516b;fill-opacity:1;fill-rule:nonzero;stroke:#33516b;stroke-width:0.59776;stroke-linecap:butt;stroke-linejoin:miter;stroke-miterlimit:10;stroke-opacity:1"
       d="M 5.57983,3.63325e-4 0.298238,1.497746 0.300077,-5.66296e-5 0.297825,-1.494145 Z m 0,0"
       transform="matrix(0.04817,-0.9988,-0.9988,-0.04817,410.44252,144.20987)"
       id="path277" />
    <g
       style="fill:#33516b;fill-opacity:1"
       id="g285">
      <use
         xlink:href="#glyph0-8"
         x="368.466"
         y="155.692"
         id="use279"
         width="100%"
         height="100%" />
      <use
         xlink:href="#glyph0-21"
         x="371.0665"
         y="155.692"
         id="use281"
         width="100%"
         height="100%" />
      <use
         xlink:href="#glyph0-4"
         x="376.56174"
         y="155.692"
         id="use283"
         width="100%"
         height="100%" />
    </g>
    <g
       style="fill:#33516b;fill-opacity:1"
       id="g299">
      <use
         xlink:href="#glyph0-5"
         x="379.81711"
         y="155.692"
         id="use287"
         width="100%"
         height="100%" />
      <use
         xlink:href="#glyph0-15"
         x="384.96118"
         y="155.692"
         id="use289"
         width="100%"
         height="100%" />
      <use
         xlink:href="#glyph0-15"
         x="388.56772"
         y="155.692"
         id="use291"
         width="100%"
         height="100%" />
      <use
         xlink:href="#glyph0-13"
         x="392.17426"
         y="155.692"
         id="use293"
         width="100%"
         height="100%" />
      <use
         xlink:href="#glyph0-22"
         x="397.63153"
         y="155.692"
         id="use295"
         width="100%"
         height="100%" />
      <use
         xlink:href="#glyph0-4"
         x="403.16473"
         y="155.692"
         id="use297"
         width="100%"
         height="100%" />
    </g>
    <path
       style="fill:none;stroke:#33516b;stroke-width:0.59776;stroke-linecap:butt;stroke-linejoin:miter;stroke-miterlimit:10;stroke-opacity:1"
       d="M 342.73453,-60.944469 V -74.202281"
       transform="matrix(1,0,0,-1,76.535,76.536)"
       id="path301" />
    <path
       style="fill:#33516b;fill-opacity:1;fill-rule:nonzero;stroke:#33516b;stroke-width:0.59776;stroke-linecap:butt;stroke-linejoin:miter;stroke-miterlimit:10;stroke-opacity:1"
       d="M 5.579829,-0.00148875 0.298579,1.494605 v -2.992187 z m 0,0"
       transform="matrix(0,1,1,0,419.27102,150.58814)"
       id="path303" />
    <path
       style="fill:none;stroke:#33516b;stroke-width:0.59776;stroke-linecap:butt;stroke-linejoin:miter;stroke-miterlimit:10;stroke-opacity:1"
       d="m 351.23844,-100.63197 v -13.25391"
       transform="matrix(1,0,0,-1,76.535,76.536)"
       id="path305" />
    <path
       style="fill:#33516b;fill-opacity:1;fill-rule:nonzero;stroke:#33516b;stroke-width:0.59776;stroke-linecap:butt;stroke-linejoin:miter;stroke-miterlimit:10;stroke-opacity:1"
       d="M 5.581809,-0.0016125 0.300559,1.494481 v -2.992187 z m 0,0"
       transform="matrix(0,1,1,0,427.77505,190.27366)"
       id="path307" />
    <path
       style="fill:#667a8f;fill-opacity:1;fill-rule:nonzero;stroke:#667a8f;stroke-width:0.12;stroke-linecap:butt;stroke-linejoin:miter;stroke-miterlimit:10;stroke-opacity:1"
       d="m 1.5625e-4,-182.83509 v 2.83203 c 0,0.78515 0.63281275,1.41797 1.41796875,1.41797 H 423.78531 c 0.78125,0 1.41797,-0.63282 1.41797,-1.41797 v -2.83203 c 0,-0.78516 -0.63672,-1.41797 -1.41797,-1.41797 H 1.418125 c -0.785156,0 -1.41796875,0.63281 -1.41796875,1.41797 z m 0,0"
       transform="matrix(1,0,0,-1,76.535,76.536)"
       id="path309" />
  </g>
</svg>
